EESchema Schematic File Version 4
LIBS:huertoArduinoNano-cache
EELAYER 30 0
EELAYER END
$Descr A4 11693 8268
encoding utf-8
Sheet 1 1
Title ""
Date ""
Rev ""
Comp ""
Comment1 ""
Comment2 ""
Comment3 ""
Comment4 ""
$EndDescr
$Comp
L Connector:Conn_01x15_Female J5
U 1 1 5D82FF3C
P 3700 1250
F 0 "J5" V 3865 1230 50  0000 C CNN
F 1 "Arduino Nano" V 3774 1230 50  0000 C CNN
F 2 "Connector_PinHeader_2.54mm:PinHeader_1x15_P2.54mm_Vertical" H 3700 1250 50  0001 C CNN
F 3 "~" H 3700 1250 50  0001 C CNN
	1    3700 1250
	0    -1   -1   0   
$EndComp
$Comp
L Connector:Conn_01x15_Female J6
U 1 1 5D831860
P 3700 1850
F 0 "J6" V 3773 1830 50  0000 C CNN
F 1 "Arduino Nano" V 3864 1830 50  0000 C CNN
F 2 "Connector_PinHeader_2.54mm:PinHeader_1x15_P2.54mm_Vertical" H 3700 1850 50  0001 C CNN
F 3 "~" H 3700 1850 50  0001 C CNN
	1    3700 1850
	0    -1   1    0   
$EndComp
Wire Wire Line
	3000 1650 3000 1450
Wire Wire Line
	3100 1650 3100 1450
Wire Wire Line
	3200 1650 3200 1450
Wire Wire Line
	3300 1650 3300 1450
Wire Wire Line
	3400 1650 3400 1450
Wire Wire Line
	3500 1650 3500 1450
Wire Wire Line
	3600 1650 3600 1450
Wire Wire Line
	3700 1650 3700 1450
Wire Wire Line
	3800 1650 3800 1450
Wire Wire Line
	3900 1650 3900 1450
Wire Wire Line
	4000 1650 4000 1450
Wire Wire Line
	4100 1650 4100 1450
Wire Wire Line
	4200 1650 4200 1450
Wire Wire Line
	4300 1650 4300 1450
Wire Wire Line
	4400 1650 4400 1450
$Comp
L Connector:Conn_01x15_Female J3
U 1 1 5D844846
P 3650 2500
F 0 "J3" V 3815 2480 50  0000 C CNN
F 1 "Arduino Nano" V 3724 2480 50  0000 C CNN
F 2 "Connector_PinHeader_2.54mm:PinHeader_1x15_P2.54mm_Vertical" H 3650 2500 50  0001 C CNN
F 3 "~" H 3650 2500 50  0001 C CNN
	1    3650 2500
	0    -1   -1   0   
$EndComp
$Comp
L Connector:Conn_01x15_Female J4
U 1 1 5D84484C
P 3650 3150
F 0 "J4" V 3723 3130 50  0000 C CNN
F 1 "Arduino Nano" V 3814 3130 50  0000 C CNN
F 2 "Connector_PinHeader_2.54mm:PinHeader_1x15_P2.54mm_Vertical" H 3650 3150 50  0001 C CNN
F 3 "~" H 3650 3150 50  0001 C CNN
	1    3650 3150
	0    -1   1    0   
$EndComp
Wire Wire Line
	2950 2950 2950 2700
Wire Wire Line
	3050 2950 3050 2700
Wire Wire Line
	3150 2950 3150 2700
Wire Wire Line
	3250 2950 3250 2700
Wire Wire Line
	3350 2950 3350 2700
Wire Wire Line
	3450 2950 3450 2700
Wire Wire Line
	3550 2950 3550 2700
Wire Wire Line
	3650 2950 3650 2700
Wire Wire Line
	3750 2950 3750 2700
Wire Wire Line
	3850 2950 3850 2700
Wire Wire Line
	3950 2950 3950 2700
Wire Wire Line
	4150 2950 4150 2700
Wire Wire Line
	4250 2950 4250 2700
$Comp
L Connector_Generic:Conn_01x02 J1
U 1 1 5D845ED6
P 1000 2900
F 0 "J1" V 872 2712 50  0000 R CNN
F 1 "12VDC IN" V 963 2712 50  0000 R CNN
F 2 "TerminalBlock:TerminalBlock_bornier-2_P5.08mm" H 1000 2900 50  0001 C CNN
F 3 "~" H 1000 2900 50  0001 C CNN
	1    1000 2900
	0    -1   1    0   
$EndComp
$Comp
L power:+12V #PWR01
U 1 1 5D846F61
P 900 2600
F 0 "#PWR01" H 900 2450 50  0001 C CNN
F 1 "+12V" H 915 2773 50  0000 C CNN
F 2 "" H 900 2600 50  0001 C CNN
F 3 "" H 900 2600 50  0001 C CNN
	1    900  2600
	1    0    0    -1  
$EndComp
$Comp
L power:GND #PWR04
U 1 1 5D848746
P 1200 2600
F 0 "#PWR04" H 1200 2350 50  0001 C CNN
F 1 "GND" H 1205 2427 50  0000 C CNN
F 2 "" H 1200 2600 50  0001 C CNN
F 3 "" H 1200 2600 50  0001 C CNN
	1    1200 2600
	1    0    0    1   
$EndComp
Wire Wire Line
	1000 2700 1000 2600
Wire Wire Line
	1000 2600 900  2600
Wire Wire Line
	1100 2700 1100 2600
Wire Wire Line
	1100 2600 1200 2600
$Comp
L power:+12V #PWR033
U 1 1 5D858100
P 10050 1500
F 0 "#PWR033" H 10050 1350 50  0001 C CNN
F 1 "+12V" H 10065 1673 50  0000 C CNN
F 2 "" H 10050 1500 50  0001 C CNN
F 3 "" H 10050 1500 50  0001 C CNN
	1    10050 1500
	1    0    0    -1  
$EndComp
$Comp
L power:+12V #PWR029
U 1 1 5D8588D4
P 9500 1500
F 0 "#PWR029" H 9500 1350 50  0001 C CNN
F 1 "+12V" H 9515 1673 50  0000 C CNN
F 2 "" H 9500 1500 50  0001 C CNN
F 3 "" H 9500 1500 50  0001 C CNN
	1    9500 1500
	1    0    0    -1  
$EndComp
$Comp
L Transistor_BJT:TIP42 Q5
U 1 1 5D8578B6
P 9950 1950
F 0 "Q5" H 10141 1904 50  0000 L CNN
F 1 "TIP42" H 10141 1995 50  0000 L CNN
F 2 "Package_TO_SOT_THT:TO-220-3_Vertical" H 10200 1875 50  0001 L CIN
F 3 "https://www.centralsemi.com/get_document.php?cmp=1&mergetype=pd&mergepath=pd&pdf_id=TIP42.PDF" H 9950 1950 50  0001 L CNN
	1    9950 1950
	1    0    0    1   
$EndComp
$Comp
L Device:R R6
U 1 1 5D859D0B
P 9500 1750
F 0 "R6" H 9570 1796 50  0000 L CNN
F 1 "3k3" H 9570 1705 50  0000 L CNN
F 2 "Resistor_THT:R_Axial_DIN0411_L9.9mm_D3.6mm_P12.70mm_Horizontal" V 9430 1750 50  0001 C CNN
F 3 "~" H 9500 1750 50  0001 C CNN
	1    9500 1750
	1    0    0    -1  
$EndComp
$Comp
L Device:R R7
U 1 1 5D85A1A1
P 9500 2150
F 0 "R7" H 9570 2196 50  0000 L CNN
F 1 "3k3" H 9570 2105 50  0000 L CNN
F 2 "Resistor_THT:R_Axial_DIN0411_L9.9mm_D3.6mm_P12.70mm_Horizontal" V 9430 2150 50  0001 C CNN
F 3 "~" H 9500 2150 50  0001 C CNN
	1    9500 2150
	1    0    0    -1  
$EndComp
Wire Wire Line
	9750 1950 9500 1950
Wire Wire Line
	9500 1950 9500 2000
Wire Wire Line
	9500 1900 9500 1950
Connection ~ 9500 1950
Wire Wire Line
	9500 1600 9500 1500
Wire Wire Line
	10050 1750 10050 1500
$Comp
L Transistor_BJT:BC547 Q3
U 1 1 5D85DE61
P 9400 2600
F 0 "Q3" H 9591 2646 50  0000 L CNN
F 1 "BC547" H 9591 2555 50  0000 L CNN
F 2 "Package_TO_SOT_THT:TO-92_Inline" H 9600 2525 50  0001 L CIN
F 3 "http://www.fairchildsemi.com/ds/BC/BC547.pdf" H 9400 2600 50  0001 L CNN
	1    9400 2600
	1    0    0    -1  
$EndComp
Wire Wire Line
	9500 2400 9500 2300
$Comp
L Device:R R4
U 1 1 5D85F23C
P 8950 2600
F 0 "R4" V 8743 2600 50  0000 C CNN
F 1 "1k" V 8834 2600 50  0000 C CNN
F 2 "Resistor_THT:R_Axial_DIN0411_L9.9mm_D3.6mm_P12.70mm_Horizontal" V 8880 2600 50  0001 C CNN
F 3 "~" H 8950 2600 50  0001 C CNN
	1    8950 2600
	0    1    1    0   
$EndComp
Wire Wire Line
	9100 2600 9200 2600
$Comp
L Connector_Generic:Conn_01x02 J10
U 1 1 5D86071B
P 10250 2400
F 0 "J10" H 10330 2392 50  0000 L CNN
F 1 "LED" H 10330 2301 50  0000 L CNN
F 2 "TerminalBlock:TerminalBlock_bornier-2_P5.08mm" H 10250 2400 50  0001 C CNN
F 3 "~" H 10250 2400 50  0001 C CNN
	1    10250 2400
	1    0    0    -1  
$EndComp
Wire Wire Line
	9500 2950 9500 2800
$Comp
L power:GND #PWR030
U 1 1 5D865609
P 9500 2950
F 0 "#PWR030" H 9500 2700 50  0001 C CNN
F 1 "GND" H 9505 2777 50  0000 C CNN
F 2 "" H 9500 2950 50  0001 C CNN
F 3 "" H 9500 2950 50  0001 C CNN
	1    9500 2950
	-1   0    0    -1  
$EndComp
Wire Wire Line
	10050 2400 10050 2150
$Comp
L power:GND #PWR034
U 1 1 5D866B68
P 10050 2950
F 0 "#PWR034" H 10050 2700 50  0001 C CNN
F 1 "GND" H 10055 2777 50  0000 C CNN
F 2 "" H 10050 2950 50  0001 C CNN
F 3 "" H 10050 2950 50  0001 C CNN
	1    10050 2950
	-1   0    0    -1  
$EndComp
Wire Wire Line
	10050 2950 10050 2500
Text Label 4250 2950 1    50   ~ 0
GND
Text Label 4150 2950 1    50   ~ 0
RST1
Text Label 4050 2950 1    50   ~ 0
5V_ARD
Text Label 3950 2950 1    50   ~ 0
A7
Text Label 3850 2950 1    50   ~ 0
A6
Text Label 3750 2950 1    50   ~ 0
A5
Text Label 3650 2950 1    50   ~ 0
A4
Text Label 3550 2950 1    50   ~ 0
A3
Text Label 3450 2950 1    50   ~ 0
A2
Text Label 3350 2950 1    50   ~ 0
A1
Text Label 3250 2950 1    50   ~ 0
A0
Text Label 3150 2950 1    50   ~ 0
REF
Text Label 3050 2950 1    50   ~ 0
3V3
Text Label 2950 2950 1    50   ~ 0
D13
Text Label 8600 2600 0    50   ~ 0
D2
Wire Wire Line
	8800 2600 8600 2600
$Comp
L Device:CP1 C1
U 1 1 5D888D1D
P 1750 1350
F 0 "C1" H 1865 1396 50  0000 L CNN
F 1 "CP1" H 1865 1305 50  0000 L CNN
F 2 "Capacitor_THT:CP_Radial_D6.3mm_P2.50mm" H 1750 1350 50  0001 C CNN
F 3 "~" H 1750 1350 50  0001 C CNN
	1    1750 1350
	1    0    0    -1  
$EndComp
$Comp
L power:+12V #PWR02
U 1 1 5D891016
P 1750 1050
F 0 "#PWR02" H 1750 900 50  0001 C CNN
F 1 "+12V" H 1765 1223 50  0000 C CNN
F 2 "" H 1750 1050 50  0001 C CNN
F 3 "" H 1750 1050 50  0001 C CNN
	1    1750 1050
	1    0    0    -1  
$EndComp
$Comp
L power:GND #PWR03
U 1 1 5D89101C
P 1750 1750
F 0 "#PWR03" H 1750 1500 50  0001 C CNN
F 1 "GND" H 1755 1577 50  0000 C CNN
F 2 "" H 1750 1750 50  0001 C CNN
F 3 "" H 1750 1750 50  0001 C CNN
	1    1750 1750
	-1   0    0    -1  
$EndComp
Wire Wire Line
	1750 1200 1750 1050
Wire Wire Line
	1750 1500 1750 1750
$Comp
L Connector_Generic:Conn_01x02 J2
U 1 1 5D8B02B7
P 1900 2700
F 0 "J2" V 1772 2512 50  0000 R CNN
F 1 "5VDC OUT" V 1863 2512 50  0000 R CNN
F 2 "TerminalBlock:TerminalBlock_bornier-2_P5.08mm" H 1900 2700 50  0001 C CNN
F 3 "~" H 1900 2700 50  0001 C CNN
	1    1900 2700
	0    -1   1    0   
$EndComp
$Comp
L power:GND #PWR08
U 1 1 5D8B02C3
P 2100 2400
F 0 "#PWR08" H 2100 2150 50  0001 C CNN
F 1 "GND" H 2105 2227 50  0000 C CNN
F 2 "" H 2100 2400 50  0001 C CNN
F 3 "" H 2100 2400 50  0001 C CNN
	1    2100 2400
	1    0    0    1   
$EndComp
Wire Wire Line
	1900 2500 1900 2400
Wire Wire Line
	1900 2400 1800 2400
Wire Wire Line
	2000 2500 2000 2400
Wire Wire Line
	2000 2400 2100 2400
Text Label 3000 1600 1    50   ~ 0
D12
Text Label 3100 1600 1    50   ~ 0
D11
$Comp
L power:+5V #PWR07
U 1 1 5D8B7BB7
P 1800 2400
F 0 "#PWR07" H 1800 2250 50  0001 C CNN
F 1 "+5V" H 1815 2573 50  0000 C CNN
F 2 "" H 1800 2400 50  0001 C CNN
F 3 "" H 1800 2400 50  0001 C CNN
	1    1800 2400
	1    0    0    -1  
$EndComp
Text Label 4200 1600 1    50   ~ 0
RST2
Text Label 4100 1600 1    50   ~ 0
GND
$Comp
L Regulator_Linear:L7805 U1
U 1 1 5D8B13A6
P 2600 6600
F 0 "U1" H 2600 6842 50  0000 C CNN
F 1 "L7805" H 2600 6751 50  0000 C CNN
F 2 "Package_TO_SOT_THT:TO-220-3_Vertical" H 2625 6450 50  0001 L CIN
F 3 "http://www.st.com/content/ccc/resource/technical/document/datasheet/41/4f/b3/b0/12/d4/47/88/CD00000444.pdf/files/CD00000444.pdf/jcr:content/translations/en.CD00000444.pdf" H 2600 6550 50  0001 C CNN
	1    2600 6600
	1    0    0    -1  
$EndComp
$Comp
L power:+12V #PWR09
U 1 1 5D8B4782
P 1850 6500
F 0 "#PWR09" H 1850 6350 50  0001 C CNN
F 1 "+12V" H 1865 6673 50  0000 C CNN
F 2 "" H 1850 6500 50  0001 C CNN
F 3 "" H 1850 6500 50  0001 C CNN
	1    1850 6500
	1    0    0    -1  
$EndComp
$Comp
L power:GND #PWR012
U 1 1 5D8B4ECE
P 2600 7150
F 0 "#PWR012" H 2600 6900 50  0001 C CNN
F 1 "GND" H 2605 6977 50  0000 C CNN
F 2 "" H 2600 7150 50  0001 C CNN
F 3 "" H 2600 7150 50  0001 C CNN
	1    2600 7150
	-1   0    0    -1  
$EndComp
Wire Wire Line
	2300 6600 2150 6600
Wire Wire Line
	1850 6600 1850 6500
Wire Wire Line
	2600 6900 2600 7150
$Comp
L Device:C C5
U 1 1 5D8BE985
P 3000 6950
F 0 "C5" H 3115 6996 50  0000 L CNN
F 1 "C" H 3115 6905 50  0000 L CNN
F 2 "Capacitor_THT:C_Disc_D6.0mm_W4.4mm_P5.00mm" H 3038 6800 50  0001 C CNN
F 3 "~" H 3000 6950 50  0001 C CNN
	1    3000 6950
	1    0    0    -1  
$EndComp
$Comp
L Device:CP C6
U 1 1 5D8BECC4
P 3350 6950
F 0 "C6" H 3468 6996 50  0000 L CNN
F 1 "CP" H 3468 6905 50  0000 L CNN
F 2 "Capacitor_THT:CP_Radial_D6.3mm_P2.50mm" H 3388 6800 50  0001 C CNN
F 3 "~" H 3350 6950 50  0001 C CNN
	1    3350 6950
	1    0    0    -1  
$EndComp
Wire Wire Line
	3350 6800 3350 6600
Wire Wire Line
	2900 6600 3000 6600
Wire Wire Line
	3000 6800 3000 6600
Connection ~ 3000 6600
Wire Wire Line
	3000 6600 3350 6600
$Comp
L Device:C C3
U 1 1 5D8C6C57
P 1850 6900
F 0 "C3" H 1965 6946 50  0000 L CNN
F 1 "C" H 1965 6855 50  0000 L CNN
F 2 "Capacitor_THT:C_Disc_D6.0mm_W4.4mm_P5.00mm" H 1888 6750 50  0001 C CNN
F 3 "~" H 1850 6900 50  0001 C CNN
	1    1850 6900
	1    0    0    -1  
$EndComp
$Comp
L Device:CP C4
U 1 1 5D8C6FAF
P 2150 6900
F 0 "C4" H 2268 6946 50  0000 L CNN
F 1 "CP" H 2268 6855 50  0000 L CNN
F 2 "Capacitor_THT:CP_Radial_D6.3mm_P2.50mm" H 2188 6750 50  0001 C CNN
F 3 "~" H 2150 6900 50  0001 C CNN
	1    2150 6900
	1    0    0    -1  
$EndComp
Wire Wire Line
	2150 6750 2150 6600
Connection ~ 2150 6600
Wire Wire Line
	2150 6600 1850 6600
Wire Wire Line
	1850 6600 1850 6750
Connection ~ 1850 6600
$Comp
L power:GND #PWR011
U 1 1 5D8CD849
P 2150 7150
F 0 "#PWR011" H 2150 6900 50  0001 C CNN
F 1 "GND" H 2155 6977 50  0000 C CNN
F 2 "" H 2150 7150 50  0001 C CNN
F 3 "" H 2150 7150 50  0001 C CNN
	1    2150 7150
	-1   0    0    -1  
$EndComp
$Comp
L power:GND #PWR010
U 1 1 5D8CDC4E
P 1850 7150
F 0 "#PWR010" H 1850 6900 50  0001 C CNN
F 1 "GND" H 1855 6977 50  0000 C CNN
F 2 "" H 1850 7150 50  0001 C CNN
F 3 "" H 1850 7150 50  0001 C CNN
	1    1850 7150
	-1   0    0    -1  
$EndComp
Wire Wire Line
	1850 7150 1850 7050
Wire Wire Line
	2150 7050 2150 7150
$Comp
L power:GND #PWR013
U 1 1 5D8D4A37
P 3000 7150
F 0 "#PWR013" H 3000 6900 50  0001 C CNN
F 1 "GND" H 3005 6977 50  0000 C CNN
F 2 "" H 3000 7150 50  0001 C CNN
F 3 "" H 3000 7150 50  0001 C CNN
	1    3000 7150
	-1   0    0    -1  
$EndComp
$Comp
L power:GND #PWR015
U 1 1 5D8D4BA0
P 3350 7150
F 0 "#PWR015" H 3350 6900 50  0001 C CNN
F 1 "GND" H 3355 6977 50  0000 C CNN
F 2 "" H 3350 7150 50  0001 C CNN
F 3 "" H 3350 7150 50  0001 C CNN
	1    3350 7150
	-1   0    0    -1  
$EndComp
Wire Wire Line
	3350 7150 3350 7100
Wire Wire Line
	3000 7100 3000 7150
$Comp
L Device:LED D1
U 1 1 5D8DC207
P 4350 6700
F 0 "D1" V 4389 6583 50  0000 R CNN
F 1 "LED" V 4298 6583 50  0000 R CNN
F 2 "LED_THT:LED_D5.0mm" H 4350 6700 50  0001 C CNN
F 3 "~" H 4350 6700 50  0001 C CNN
	1    4350 6700
	0    -1   -1   0   
$EndComp
$Comp
L power:GND #PWR017
U 1 1 5D8DCAFB
P 4350 7350
F 0 "#PWR017" H 4350 7100 50  0001 C CNN
F 1 "GND" H 4355 7177 50  0000 C CNN
F 2 "" H 4350 7350 50  0001 C CNN
F 3 "" H 4350 7350 50  0001 C CNN
	1    4350 7350
	-1   0    0    -1  
$EndComp
$Comp
L Device:R R1
U 1 1 5D8DCFD2
P 4350 7100
F 0 "R1" H 4420 7146 50  0000 L CNN
F 1 "270" H 4420 7055 50  0000 L CNN
F 2 "Resistor_THT:R_Axial_DIN0411_L9.9mm_D3.6mm_P12.70mm_Horizontal" V 4280 7100 50  0001 C CNN
F 3 "~" H 4350 7100 50  0001 C CNN
	1    4350 7100
	1    0    0    -1  
$EndComp
Wire Wire Line
	4350 7250 4350 7350
Wire Wire Line
	4350 6950 4350 6850
Wire Wire Line
	4350 6400 4350 6550
$Comp
L power:+5V #PWR014
U 1 1 5D90980B
P 3350 6500
F 0 "#PWR014" H 3350 6350 50  0001 C CNN
F 1 "+5V" H 3365 6673 50  0000 C CNN
F 2 "" H 3350 6500 50  0001 C CNN
F 3 "" H 3350 6500 50  0001 C CNN
	1    3350 6500
	1    0    0    -1  
$EndComp
Connection ~ 3350 6600
$Comp
L power:+5V #PWR016
U 1 1 5D90AED5
P 4350 6400
F 0 "#PWR016" H 4350 6250 50  0001 C CNN
F 1 "+5V" H 4365 6573 50  0000 C CNN
F 2 "" H 4350 6400 50  0001 C CNN
F 3 "" H 4350 6400 50  0001 C CNN
	1    4350 6400
	1    0    0    -1  
$EndComp
Wire Wire Line
	3350 6500 3350 6600
$Comp
L Device:CP1 C2
U 1 1 5D9772D8
P 2150 1350
F 0 "C2" H 2265 1396 50  0000 L CNN
F 1 "CP1" H 2265 1305 50  0000 L CNN
F 2 "Capacitor_THT:CP_Radial_D6.3mm_P2.50mm" H 2150 1350 50  0001 C CNN
F 3 "~" H 2150 1350 50  0001 C CNN
	1    2150 1350
	1    0    0    -1  
$EndComp
$Comp
L power:GND #PWR06
U 1 1 5D9772E4
P 2150 1750
F 0 "#PWR06" H 2150 1500 50  0001 C CNN
F 1 "GND" H 2155 1577 50  0000 C CNN
F 2 "" H 2150 1750 50  0001 C CNN
F 3 "" H 2150 1750 50  0001 C CNN
	1    2150 1750
	-1   0    0    -1  
$EndComp
Wire Wire Line
	2150 1200 2150 1050
Wire Wire Line
	2150 1500 2150 1750
$Comp
L power:+5V #PWR05
U 1 1 5D97ADFD
P 2150 1050
F 0 "#PWR05" H 2150 900 50  0001 C CNN
F 1 "+5V" H 2165 1223 50  0000 C CNN
F 2 "" H 2150 1050 50  0001 C CNN
F 3 "" H 2150 1050 50  0001 C CNN
	1    2150 1050
	1    0    0    -1  
$EndComp
$Comp
L power:+5V #PWR018
U 1 1 5D99E374
P 5750 1350
F 0 "#PWR018" H 5750 1200 50  0001 C CNN
F 1 "+5V" H 5765 1523 50  0000 C CNN
F 2 "" H 5750 1350 50  0001 C CNN
F 3 "" H 5750 1350 50  0001 C CNN
	1    5750 1350
	1    0    0    -1  
$EndComp
Wire Wire Line
	5750 1350 5750 1650
$Comp
L power:GND #PWR022
U 1 1 5D9A8990
P 5850 1550
F 0 "#PWR022" H 5850 1300 50  0001 C CNN
F 1 "GND" H 5855 1377 50  0000 C CNN
F 2 "" H 5850 1550 50  0001 C CNN
F 3 "" H 5850 1550 50  0001 C CNN
	1    5850 1550
	-1   0    0    1   
$EndComp
Wire Wire Line
	5850 1550 5850 1650
$Comp
L Connector:Conn_01x04_Female J7
U 1 1 5D9AD61C
P 5850 1850
F 0 "J7" V 5696 1562 50  0000 R CNN
F 1 "SH1" V 5787 1562 50  0000 R CNN
F 2 "Connector_PinHeader_2.54mm:PinHeader_1x04_P2.54mm_Vertical" H 5850 1850 50  0001 C CNN
F 3 "~" H 5850 1850 50  0001 C CNN
	1    5850 1850
	0    -1   1    0   
$EndComp
Wire Wire Line
	6050 1650 6050 1500
Text Label 6050 1500 0    50   ~ 0
A0
$Comp
L power:+5V #PWR019
U 1 1 5D9BDE77
P 5750 2150
F 0 "#PWR019" H 5750 2000 50  0001 C CNN
F 1 "+5V" H 5765 2323 50  0000 C CNN
F 2 "" H 5750 2150 50  0001 C CNN
F 3 "" H 5750 2150 50  0001 C CNN
	1    5750 2150
	1    0    0    -1  
$EndComp
Wire Wire Line
	5750 2150 5750 2450
$Comp
L power:GND #PWR023
U 1 1 5D9BDE7E
P 5850 2350
F 0 "#PWR023" H 5850 2100 50  0001 C CNN
F 1 "GND" H 5855 2177 50  0000 C CNN
F 2 "" H 5850 2350 50  0001 C CNN
F 3 "" H 5850 2350 50  0001 C CNN
	1    5850 2350
	-1   0    0    1   
$EndComp
Wire Wire Line
	5850 2350 5850 2450
$Comp
L Connector:Conn_01x04_Female J8
U 1 1 5D9BDE85
P 5850 2650
F 0 "J8" V 5696 2362 50  0000 R CNN
F 1 "SH2" V 5787 2362 50  0000 R CNN
F 2 "Connector_PinHeader_2.54mm:PinHeader_1x04_P2.54mm_Vertical" H 5850 2650 50  0001 C CNN
F 3 "~" H 5850 2650 50  0001 C CNN
	1    5850 2650
	0    -1   1    0   
$EndComp
Wire Wire Line
	6050 2450 6050 2300
Text Label 6050 2300 0    50   ~ 0
A1
$Comp
L power:+5V #PWR025
U 1 1 5D9C36E6
P 6550 1850
F 0 "#PWR025" H 6550 1700 50  0001 C CNN
F 1 "+5V" H 6565 2023 50  0000 C CNN
F 2 "" H 6550 1850 50  0001 C CNN
F 3 "" H 6550 1850 50  0001 C CNN
	1    6550 1850
	1    0    0    -1  
$EndComp
Wire Wire Line
	6550 1850 6550 2150
$Comp
L power:GND #PWR026
U 1 1 5D9C36ED
P 6650 2050
F 0 "#PWR026" H 6650 1800 50  0001 C CNN
F 1 "GND" H 6655 1877 50  0000 C CNN
F 2 "" H 6650 2050 50  0001 C CNN
F 3 "" H 6650 2050 50  0001 C CNN
	1    6650 2050
	-1   0    0    1   
$EndComp
Wire Wire Line
	6650 2050 6650 2150
$Comp
L Connector:Conn_01x04_Female J9
U 1 1 5D9C36F4
P 6650 2350
F 0 "J9" V 6496 2062 50  0000 R CNN
F 1 "SH3" V 6587 2062 50  0000 R CNN
F 2 "Connector_PinHeader_2.54mm:PinHeader_1x04_P2.54mm_Vertical" H 6650 2350 50  0001 C CNN
F 3 "~" H 6650 2350 50  0001 C CNN
	1    6650 2350
	0    -1   1    0   
$EndComp
Wire Wire Line
	6850 2150 6850 2000
Text Label 6850 2000 0    50   ~ 0
A2
Wire Notes Line width 20
	5600 1100 5600 2850
Wire Notes Line width 20
	5600 2850 7150 2850
Wire Notes Line width 20
	7150 2850 7150 1100
Wire Notes Line width 20
	7150 1100 5600 1100
Text Notes 6400 1450 0    79   ~ 0
Sensores de \nhumedad en\ntierra
Wire Wire Line
	5950 1350 5950 1650
$Comp
L Connector:TestPoint TP1
U 1 1 5D9EF111
P 5950 1350
F 0 "TP1" H 6008 1468 50  0000 L CNN
F 1 "SHD0" H 6008 1377 50  0000 L CNN
F 2 "Connector_PinSocket_2.54mm:PinSocket_1x01_P2.54mm_Vertical" H 6150 1350 50  0001 C CNN
F 3 "~" H 6150 1350 50  0001 C CNN
	1    5950 1350
	1    0    0    -1  
$EndComp
$Comp
L Connector:TestPoint TP2
U 1 1 5D9F2137
P 5950 2150
F 0 "TP2" H 6008 2268 50  0000 L CNN
F 1 "SHD0" H 6008 2177 50  0000 L CNN
F 2 "Connector_PinSocket_2.54mm:PinSocket_1x01_P2.54mm_Vertical" H 6150 2150 50  0001 C CNN
F 3 "~" H 6150 2150 50  0001 C CNN
	1    5950 2150
	1    0    0    -1  
$EndComp
$Comp
L Connector:TestPoint TP3
U 1 1 5D9F255A
P 6750 1850
F 0 "TP3" H 6808 1968 50  0000 L CNN
F 1 "SHD0" H 6808 1877 50  0000 L CNN
F 2 "Connector_PinSocket_2.54mm:PinSocket_1x01_P2.54mm_Vertical" H 6950 1850 50  0001 C CNN
F 3 "~" H 6950 1850 50  0001 C CNN
	1    6750 1850
	1    0    0    -1  
$EndComp
Wire Wire Line
	6750 1850 6750 2150
Wire Wire Line
	5950 2150 5950 2450
Wire Notes Line
	8500 1150 8500 3200
Wire Notes Line
	8500 3200 10550 3200
Wire Notes Line
	10550 3200 10550 1150
Wire Notes Line
	10550 1150 8500 1150
Text Notes 8700 1450 0    79   ~ 0
Power\nLeds
Wire Notes Line
	1550 6050 4700 6050
Wire Notes Line
	4700 6050 4700 7700
Wire Notes Line
	4700 7700 1550 7700
Wire Notes Line
	1550 7700 1550 6050
Text Notes 1650 6150 0    79   ~ 0
REgulador Voltaje 12V a 5V
Wire Notes Line
	2550 3550 2550 750 
Wire Notes Line
	4700 750  2550 750 
Text Notes 3000 950  0    79   ~ 0
Arduino Nano Mount
$Comp
L power:PWR_FLAG #FLG0101
U 1 1 5DA8BF7F
P 750 800
F 0 "#FLG0101" H 750 875 50  0001 C CNN
F 1 "PWR_FLAG" H 750 973 50  0000 C CNN
F 2 "" H 750 800 50  0001 C CNN
F 3 "~" H 750 800 50  0001 C CNN
	1    750  800 
	1    0    0    -1  
$EndComp
$Comp
L power:PWR_FLAG #FLG0102
U 1 1 5DA8E9E1
P 750 1550
F 0 "#FLG0102" H 750 1625 50  0001 C CNN
F 1 "PWR_FLAG" H 750 1723 50  0000 C CNN
F 2 "" H 750 1550 50  0001 C CNN
F 3 "~" H 750 1550 50  0001 C CNN
	1    750  1550
	1    0    0    -1  
$EndComp
$Comp
L power:+12V #PWR0101
U 1 1 5DA8F0EA
P 750 1050
F 0 "#PWR0101" H 750 900 50  0001 C CNN
F 1 "+12V" H 765 1223 50  0000 C CNN
F 2 "" H 750 1050 50  0001 C CNN
F 3 "" H 750 1050 50  0001 C CNN
	1    750  1050
	-1   0    0    1   
$EndComp
$Comp
L power:GND #PWR0102
U 1 1 5DA8F5E8
P 750 1800
F 0 "#PWR0102" H 750 1550 50  0001 C CNN
F 1 "GND" H 755 1627 50  0000 C CNN
F 2 "" H 750 1800 50  0001 C CNN
F 3 "" H 750 1800 50  0001 C CNN
	1    750  1800
	-1   0    0    -1  
$EndComp
Wire Wire Line
	750  1550 750  1800
Wire Wire Line
	750  1050 750  800 
Wire Wire Line
	4350 2700 4350 2950
Text Label 4350 2950 1    47   ~ 0
VIN
Text Label 4000 1600 1    59   ~ 0
D2
Text Label 3900 1600 1    50   ~ 0
D3
Text Label 3800 1600 1    50   ~ 0
D4
Text Label 3700 1600 1    50   ~ 0
D5
Text Label 3600 1600 1    50   ~ 0
D6
Text Label 3500 1600 1    50   ~ 0
D7
Text Label 3400 1600 1    50   ~ 0
D8
Text Label 3300 1600 1    50   ~ 0
D9
Text Label 3200 1600 1    50   ~ 0
D10
Text Label 4300 1600 1    50   ~ 0
RX0
Text Label 4400 1600 1    50   ~ 0
TX1
Wire Wire Line
	4050 2950 4050 2700
Text Notes 6600 3700 0    79   ~ 0
RELEVADOR
Wire Notes Line
	5350 3550 8800 3550
Wire Notes Line
	5350 5800 5350 3550
Wire Notes Line
	8800 5800 5350 5800
Wire Notes Line
	8900 3550 8900 5800
$Comp
L Connector:Screw_Terminal_01x03 J12
U 1 1 5DAD5888
P 8100 4000
F 0 "J12" V 8300 4150 50  0000 R CNN
F 1 "SW1" V 8200 4150 50  0000 R CNN
F 2 "TerminalBlock:TerminalBlock_bornier-3_P5.08mm" H 8100 4000 50  0001 C CNN
F 3 "~" H 8100 4000 50  0001 C CNN
	1    8100 4000
	0    -1   -1   0   
$EndComp
Wire Wire Line
	5500 3850 5500 4000
$Comp
L Connector:TestPoint TP4
U 1 1 5DAC3B1C
P 5500 3850
F 0 "TP4" H 5558 3968 50  0000 L CNN
F 1 "REL1" H 5558 3877 50  0000 L CNN
F 2 "Connector_PinSocket_2.54mm:PinSocket_1x01_P2.54mm_Vertical" H 5700 3850 50  0001 C CNN
F 3 "~" H 5700 3850 50  0001 C CNN
	1    5500 3850
	1    0    0    -1  
$EndComp
Wire Wire Line
	5500 4650 5600 4650
Wire Wire Line
	5500 4850 5500 4650
$Comp
L power:GND #PWR0104
U 1 1 5DABAD2D
P 5500 4850
F 0 "#PWR0104" H 5500 4600 50  0001 C CNN
F 1 "GND" H 5505 4677 50  0000 C CNN
F 2 "" H 5500 4850 50  0001 C CNN
F 3 "" H 5500 4850 50  0001 C CNN
	1    5500 4850
	-1   0    0    -1  
$EndComp
Wire Wire Line
	5500 4450 5500 4300
Wire Wire Line
	5600 4450 5500 4450
$Comp
L Device:R R10
U 1 1 5DAA73C6
P 5500 4150
F 0 "R10" H 5430 4104 50  0000 R CNN
F 1 "1k" H 5430 4195 50  0000 R CNN
F 2 "Resistor_THT:R_Axial_DIN0411_L9.9mm_D3.6mm_P12.70mm_Horizontal" V 5430 4150 50  0001 C CNN
F 3 "~" H 5500 4150 50  0001 C CNN
	1    5500 4150
	-1   0    0    1   
$EndComp
NoConn ~ 6200 4450
Wire Notes Line
	4700 3550 2550 3550
Wire Notes Line
	4700 750  4700 3550
Wire Wire Line
	7450 4050 7450 3900
Wire Wire Line
	6350 4550 6200 4550
Wire Wire Line
	6350 3900 6350 4550
$Comp
L power:+12V #PWR020
U 1 1 5D8F78B4
P 6350 3900
F 0 "#PWR020" H 6350 3750 50  0001 C CNN
F 1 "+12V" H 6365 4073 50  0000 C CNN
F 2 "" H 6350 3900 50  0001 C CNN
F 3 "" H 6350 3900 50  0001 C CNN
	1    6350 3900
	1    0    0    -1  
$EndComp
$Comp
L power:+12V #PWR027
U 1 1 5D8F7277
P 7450 3900
F 0 "#PWR027" H 7450 3750 50  0001 C CNN
F 1 "+12V" H 7465 4073 50  0000 C CNN
F 2 "" H 7450 3900 50  0001 C CNN
F 3 "" H 7450 3900 50  0001 C CNN
	1    7450 3900
	1    0    0    -1  
$EndComp
Connection ~ 6350 4650
Wire Wire Line
	6200 4650 6350 4650
$Comp
L Isolator:4N35 U2
U 1 1 5D8C65AC
P 5900 4550
F 0 "U2" H 5900 4875 50  0000 C CNN
F 1 "4N35" H 5900 4784 50  0000 C CNN
F 2 "Package_DIP:DIP-6_W7.62mm" H 5700 4350 50  0001 L CIN
F 3 "https://www.vishay.com/docs/81181/4n35.pdf" H 5900 4550 50  0001 L CNN
	1    5900 4550
	1    0    0    -1  
$EndComp
Wire Wire Line
	7050 4850 7050 5400
Wire Wire Line
	7050 4250 7150 4250
Wire Wire Line
	7050 4450 7050 4250
Wire Wire Line
	6650 4650 6750 4650
Wire Wire Line
	6350 4900 6350 4650
Wire Wire Line
	6350 5400 6350 5200
$Comp
L power:GND #PWR021
U 1 1 5D8CB305
P 6350 5400
F 0 "#PWR021" H 6350 5150 50  0001 C CNN
F 1 "GND" H 6355 5227 50  0000 C CNN
F 2 "" H 6350 5400 50  0001 C CNN
F 3 "" H 6350 5400 50  0001 C CNN
	1    6350 5400
	-1   0    0    -1  
$EndComp
$Comp
L power:GND #PWR024
U 1 1 5D8CAF83
P 7050 5400
F 0 "#PWR024" H 7050 5150 50  0001 C CNN
F 1 "GND" H 7055 5227 50  0000 C CNN
F 2 "" H 7050 5400 50  0001 C CNN
F 3 "" H 7050 5400 50  0001 C CNN
	1    7050 5400
	-1   0    0    -1  
$EndComp
$Comp
L Device:R R3
U 1 1 5D8C8C11
P 6500 4650
F 0 "R3" V 6707 4650 50  0000 C CNN
F 1 "22k" V 6616 4650 50  0000 C CNN
F 2 "Resistor_THT:R_Axial_DIN0411_L9.9mm_D3.6mm_P12.70mm_Horizontal" V 6430 4650 50  0001 C CNN
F 3 "~" H 6500 4650 50  0001 C CNN
	1    6500 4650
	0    -1   -1   0   
$EndComp
$Comp
L Device:R R2
U 1 1 5D8C85AD
P 6350 5050
F 0 "R2" H 6280 5004 50  0000 R CNN
F 1 "47k" H 6280 5095 50  0000 R CNN
F 2 "Resistor_THT:R_Axial_DIN0411_L9.9mm_D3.6mm_P12.70mm_Horizontal" V 6280 5050 50  0001 C CNN
F 3 "~" H 6350 5050 50  0001 C CNN
	1    6350 5050
	-1   0    0    1   
$EndComp
$Comp
L Transistor_BJT:BC548 Q1
U 1 1 5D8C21B7
P 6950 4650
F 0 "Q1" H 7141 4696 50  0000 L CNN
F 1 "BC548" H 7141 4605 50  0000 L CNN
F 2 "Package_TO_SOT_THT:TO-92_Inline" H 7150 4575 50  0001 L CIN
F 3 "http://www.fairchildsemi.com/ds/BC/BC547.pdf" H 6950 4650 50  0001 L CNN
	1    6950 4650
	1    0    0    -1  
$EndComp
$Comp
L Transistor_BJT:BC558 Q2
U 1 1 5D8C17F9
P 7350 4250
F 0 "Q2" H 7541 4204 50  0000 L CNN
F 1 "BC558" H 7541 4295 50  0000 L CNN
F 2 "Package_TO_SOT_THT:TO-92_Inline" H 7550 4175 50  0001 L CIN
F 3 "http://www.fairchildsemi.com/ds/BC/BC557.pdf" H 7350 4250 50  0001 L CNN
	1    7350 4250
	1    0    0    1   
$EndComp
$Comp
L Connector:Conn_01x03_Female J16
U 1 1 5DCA5844
P 4450 4750
F 0 "J16" H 4478 4776 50  0000 L CNN
F 1 "S3" H 4478 4685 50  0000 L CNN
F 2 "Connector_PinHeader_2.54mm:PinHeader_1x03_P2.54mm_Vertical" H 4450 4750 50  0001 C CNN
F 3 "~" H 4450 4750 50  0001 C CNN
	1    4450 4750
	1    0    0    -1  
$EndComp
$Comp
L power:+5V #PWR0103
U 1 1 5DCA8F6B
P 4000 4500
F 0 "#PWR0103" H 4000 4350 50  0001 C CNN
F 1 "+5V" H 4015 4673 50  0000 C CNN
F 2 "" H 4000 4500 50  0001 C CNN
F 3 "" H 4000 4500 50  0001 C CNN
	1    4000 4500
	1    0    0    -1  
$EndComp
$Comp
L power:GND #PWR0105
U 1 1 5DCB0156
P 4000 5050
F 0 "#PWR0105" H 4000 4800 50  0001 C CNN
F 1 "GND" H 4005 4877 50  0000 C CNN
F 2 "" H 4000 5050 50  0001 C CNN
F 3 "" H 4000 5050 50  0001 C CNN
	1    4000 5050
	-1   0    0    -1  
$EndComp
Wire Wire Line
	4000 5050 4000 4850
Wire Wire Line
	4000 4850 4250 4850
Wire Wire Line
	4000 4750 4250 4750
Wire Wire Line
	4000 4500 4000 4750
Wire Wire Line
	4100 4650 4250 4650
$Comp
L Connector:Conn_01x03_Female J14
U 1 1 5DCCB14C
P 2850 4750
F 0 "J14" H 2878 4776 50  0000 L CNN
F 1 "S1" H 2878 4685 50  0000 L CNN
F 2 "Connector_PinHeader_2.54mm:PinHeader_1x03_P2.54mm_Vertical" H 2850 4750 50  0001 C CNN
F 3 "~" H 2850 4750 50  0001 C CNN
	1    2850 4750
	1    0    0    -1  
$EndComp
$Comp
L power:+5V #PWR0106
U 1 1 5DCCB152
P 2400 4500
F 0 "#PWR0106" H 2400 4350 50  0001 C CNN
F 1 "+5V" H 2415 4673 50  0000 C CNN
F 2 "" H 2400 4500 50  0001 C CNN
F 3 "" H 2400 4500 50  0001 C CNN
	1    2400 4500
	1    0    0    -1  
$EndComp
$Comp
L power:GND #PWR0107
U 1 1 5DCCB158
P 2400 5050
F 0 "#PWR0107" H 2400 4800 50  0001 C CNN
F 1 "GND" H 2405 4877 50  0000 C CNN
F 2 "" H 2400 5050 50  0001 C CNN
F 3 "" H 2400 5050 50  0001 C CNN
	1    2400 5050
	-1   0    0    -1  
$EndComp
Wire Wire Line
	2400 5050 2400 4850
Wire Wire Line
	2400 4850 2650 4850
Wire Wire Line
	2400 4750 2650 4750
Wire Wire Line
	2400 4500 2400 4750
Wire Wire Line
	2500 4650 2650 4650
$Comp
L Connector:Conn_01x03_Female J15
U 1 1 5DCD280E
P 3700 4750
F 0 "J15" H 3728 4776 50  0000 L CNN
F 1 "S2" H 3728 4685 50  0000 L CNN
F 2 "Connector_PinHeader_2.54mm:PinHeader_1x03_P2.54mm_Vertical" H 3700 4750 50  0001 C CNN
F 3 "~" H 3700 4750 50  0001 C CNN
	1    3700 4750
	1    0    0    -1  
$EndComp
$Comp
L power:+5V #PWR0108
U 1 1 5DCD2814
P 3250 4500
F 0 "#PWR0108" H 3250 4350 50  0001 C CNN
F 1 "+5V" H 3265 4673 50  0000 C CNN
F 2 "" H 3250 4500 50  0001 C CNN
F 3 "" H 3250 4500 50  0001 C CNN
	1    3250 4500
	1    0    0    -1  
$EndComp
$Comp
L power:GND #PWR0109
U 1 1 5DCD281A
P 3250 5050
F 0 "#PWR0109" H 3250 4800 50  0001 C CNN
F 1 "GND" H 3255 4877 50  0000 C CNN
F 2 "" H 3250 5050 50  0001 C CNN
F 3 "" H 3250 5050 50  0001 C CNN
	1    3250 5050
	-1   0    0    -1  
$EndComp
Wire Wire Line
	3250 5050 3250 4850
Wire Wire Line
	3250 4850 3500 4850
Wire Wire Line
	3250 4750 3500 4750
Wire Wire Line
	3250 4500 3250 4750
Wire Wire Line
	3350 4650 3500 4650
Wire Notes Line
	2050 4100 4650 4100
Wire Notes Line
	4650 4100 4650 5450
Wire Notes Line
	4650 5450 2050 5450
Wire Notes Line
	2050 5450 2050 4100
Text Notes 3000 4250 0    79   ~ 0
Servomotores
Text Label 2500 4650 0    59   ~ 0
D3
Text Label 3350 4650 0    59   ~ 0
D5
Text Label 4100 4650 0    59   ~ 0
D6
$Comp
L Connector_Generic:Conn_01x02 J13
U 1 1 5D8BAF33
P 1900 3400
F 0 "J13" V 1772 3212 50  0000 R CNN
F 1 "VIN NANO" V 1863 3212 50  0000 R CNN
F 2 "TerminalBlock:TerminalBlock_bornier-2_P5.08mm" H 1900 3400 50  0001 C CNN
F 3 "~" H 1900 3400 50  0001 C CNN
	1    1900 3400
	0    -1   1    0   
$EndComp
$Comp
L power:GND #PWR0110
U 1 1 5D8BAF39
P 2100 3100
F 0 "#PWR0110" H 2100 2850 50  0001 C CNN
F 1 "GND" H 2105 2927 50  0000 C CNN
F 2 "" H 2100 3100 50  0001 C CNN
F 3 "" H 2100 3100 50  0001 C CNN
	1    2100 3100
	1    0    0    1   
$EndComp
Wire Wire Line
	1900 3200 1900 3100
Wire Wire Line
	1900 3100 1800 3100
Wire Wire Line
	2000 3200 2000 3100
Wire Wire Line
	2000 3100 2100 3100
Text Label 1800 3000 0    50   ~ 0
VIN
Wire Wire Line
	1800 3100 1800 3000
Wire Wire Line
	8200 4200 8200 4600
Wire Wire Line
	8500 4400 8500 4200
$Comp
L Connector:Screw_Terminal_01x03 J17
U 1 1 5D944061
P 8500 4000
F 0 "J17" V 8700 4150 50  0000 R CNN
F 1 "SW2" V 8600 4150 50  0000 R CNN
F 2 "TerminalBlock:TerminalBlock_bornier-3_P5.08mm" H 8500 4000 50  0001 C CNN
F 3 "~" H 8500 4000 50  0001 C CNN
	1    8500 4000
	0    -1   -1   0   
$EndComp
Wire Wire Line
	8600 4200 8600 4600
Wire Wire Line
	8500 4400 8750 4400
Wire Wire Line
	8750 4400 8750 5300
Wire Wire Line
	8750 5300 8500 5300
Wire Wire Line
	8500 5300 8500 5200
Wire Wire Line
	8100 4450 8850 4450
Wire Wire Line
	8850 4450 8850 5350
Wire Wire Line
	8850 5350 8100 5350
Wire Wire Line
	8100 5350 8100 5200
Wire Wire Line
	8100 4200 8100 4450
Wire Wire Line
	7450 4500 7700 4500
Wire Wire Line
	7700 4500 7700 4600
Connection ~ 7450 4500
Wire Wire Line
	7450 4500 7450 4450
$Comp
L power:GND #PWR037
U 1 1 5D962D68
P 7700 5400
F 0 "#PWR037" H 7700 5150 50  0001 C CNN
F 1 "GND" H 7705 5227 50  0000 C CNN
F 2 "" H 7700 5400 50  0001 C CNN
F 3 "" H 7700 5400 50  0001 C CNN
	1    7700 5400
	-1   0    0    -1  
$EndComp
Wire Wire Line
	7700 5400 7700 5200
$Comp
L power:GND #PWR028
U 1 1 5D8CA8AD
P 7450 5400
F 0 "#PWR028" H 7450 5150 50  0001 C CNN
F 1 "GND" H 7455 5227 50  0000 C CNN
F 2 "" H 7450 5400 50  0001 C CNN
F 3 "" H 7450 5400 50  0001 C CNN
	1    7450 5400
	-1   0    0    -1  
$EndComp
Wire Wire Line
	7450 5000 7450 5400
Wire Wire Line
	7450 4700 7450 4500
$Comp
L Diode:1N4001 D2
U 1 1 5D8E1103
P 7450 4850
F 0 "D2" V 7550 4650 50  0000 L CNN
F 1 "1N4001" V 7650 4550 50  0000 L CNN
F 2 "Diode_THT:D_DO-41_SOD81_P10.16mm_Horizontal" H 7450 4675 50  0001 C CNN
F 3 "http://www.vishay.com/docs/88503/1n4001.pdf" H 7450 4850 50  0001 C CNN
	1    7450 4850
	0    1    1    0   
$EndComp
$Comp
L Relay:G5V-2 K1
U 1 1 5D8C592A
P 8100 4900
F 0 "K1" H 8730 4946 50  0000 L CNN
F 1 "G5V-2" H 8730 4855 50  0000 L CNN
F 2 "Relay_THT:Relay_DPDT_Omron_G5V-2" H 8750 4850 50  0001 L CNN
F 3 "http://omronfs.omron.com/en_US/ecb/products/pdf/en-g5v_2.pdf" H 7900 4900 50  0001 C CNN
	1    8100 4900
	1    0    0    -1  
$EndComp
$Comp
L Device:CP1 C7
U 1 1 5D968ED5
P 1350 1350
F 0 "C7" H 1465 1396 50  0000 L CNN
F 1 "CP1" H 1465 1305 50  0000 L CNN
F 2 "Capacitor_THT:CP_Radial_D6.3mm_P2.50mm" H 1350 1350 50  0001 C CNN
F 3 "~" H 1350 1350 50  0001 C CNN
	1    1350 1350
	1    0    0    -1  
$EndComp
$Comp
L power:GND #PWR038
U 1 1 5D968EE1
P 1350 1750
F 0 "#PWR038" H 1350 1500 50  0001 C CNN
F 1 "GND" H 1355 1577 50  0000 C CNN
F 2 "" H 1350 1750 50  0001 C CNN
F 3 "" H 1350 1750 50  0001 C CNN
	1    1350 1750
	-1   0    0    -1  
$EndComp
Wire Wire Line
	1350 1200 1350 1050
Wire Wire Line
	1350 1500 1350 1750
Text Label 1350 1050 0    79   ~ 0
VIN
Wire Wire Line
	8000 4200 8000 4600
Wire Wire Line
	8400 4200 8400 4600
$EndSCHEMATC
